@startuml

title: Collections Framework(List, Queue, and Set) in Java



' This is a comment
' implements symbol
' extends symbol
' symbols 
' extension - Symbol <|--
' composition - Symbol *--
' Aggregation - Symbol o--
' It is possible to replace -- with ..

'TODO - Add real framework hierarchy'

package java.lang {
  interface Iterable<T> {
    iteratror(): java.util.Iterator<T>
    default Splititerator<T> splititerator() { //impl }
    default void forEach(Consumer<? super T> action) {//impl }
  }
}


package java.util {
  interface Collection<E> extends Iterable
  abstract class AbstractCollection<E> implements Collection

  interface Iterator<E> {
    hasNext(): boolean
    next(): E
    hasPrevious(): boolean
    previous(): E
    remove(): void
    default void forEachRemaining(Consumer<? super E> action) { //impl }
    nextIndex(): int
    previousIndex(): int
    set(E e): void
    add(E e): void
  }
    interface ListIterator<E> extends Iterator {
      hasNext(): boolean
      next(): E
      remove(): void
    }
  interface Splititerator<E>

  /' List interface '/

  interface List<E> extends Collection
   abstract class AbstractList<E> extends AbstractCollection implements List
   abstract class AbstractSequentialList<E> extends AbstractList

   class ArrayList<E> extends AbstractList implements List
   
   class LinkedList<E> extends AbstractSequentialList implements List, Deque
   package concurrent {
    class CopyOnWriteArrayList<E> implements List
   }
   
   
   class Vector<E> extends AbstractList implements List
    class Stack<E> extends Vector
  
  /' Queue interface '/
  interface Queue<E> extends Collection
   class AbstractQueue<E> extends AbstractCollection implements Queue
   class PriorityQueue<E> extends AbstractQueue
   interface Deque<E> extends Queue
   interface BlockingQueue<E> extends Queue
    class ArrayBlockingQueue<E> extends AbstractQueue implements BlockingQueue
  
  /' Set interface '/
  interface Set<E> extends Collection
   interface SortedSet<E> extends Set
   interface NavigableSet<E> extends SortedSet
   abstract class AbstractSet<E> extends AbstractCollection implements Set
   package concurrent {
    class CopyOnWriteArraySet extends AbstractSet
   }
    
    class TreeSet<E> extends AbstractSet implements NavigableSet
    class HashSet<E> extends AbstractSet implements Set
     class LinkedHashSet<E> extends HashSet implements Set

}


legend bottom center
@sairaghava_k
endlegend


@enduml
